…
    ## `summarise()` has grouped output by 'conf'. You can override using the
    ## `.groups` argument.

``` r
mpts_yr
```

    ## # A tibble: 421 × 3
    ## # Groups:   conf [36]
    ##    conf   year mean_pts
    ##    <chr> <int>    <dbl>
    ##  1 Ind    2015     7.10
    ##  2 BE     2018     6.88
    ##  3 ASun   2017     6.83
    ##  4 Sum    2018     6.73
    ##  5 OVC    2019     6.72
    ##  6 Sum    2019     6.69
    ##  7 CAA    2018     6.68
    ##  8 B12    2018     6.63
    ##  9 MVC    2019     6.58
    ## 10 WAC    2020     6.57
    ## # … with 411 more rows
…
